bookmark = {
	name = "EORDAND_NAME"
	desc = "EORDAND_DESC"
	date = 1444.11.11
	
	center = 
	default = no
	
	country = H01
	country = H08
	country = H02
	country = H13
	country = H16
	
	easy_country = H01
	easy_country = H08
	
}