#160 - Oltenia | 

owner = A01
controller = A01
add_core = A01
add_core = A69
culture = redfoot_halfling
religion = regent_court

hre = no

base_tax = 2
base_production = 5
base_manpower = 2

trade_goods = copper
center_of_trade = 1
capital = ""

is_city = yes







