#393 - Jabal Shammar

owner = F07
controller = F07
add_core = F07
culture = west_sandfang_gnoll
religion = xhazobkult

hre = no

base_tax = 4
base_production = 3
base_manpower = 3

trade_goods = iron

capital = ""

is_city = yes








