owner = R21
controller = R21
add_core = R21
culture = rasarhid
religion = high_philosophy

hre = no

base_tax = 1
base_production = 1
base_manpower = 4

trade_goods = dyes

capital = ""

is_city = yes
