alliance = {
	first = I26
	second = I27
	start_date = 1430.1.1
	end_date = 1909.1.1
}

alliance = {
	first = I26
	second = I28
	start_date = 1430.1.1
	end_date = 1909.1.1
}

alliance = {
	first = I26
	second = I29
	start_date = 1430.1.1
	end_date = 1909.1.1
}

alliance = {
	first = I26
	second = I30
	start_date = 1430.1.1
	end_date = 1909.1.1
}

alliance = {
	first = I26
	second = I33
	start_date = 1430.1.1
	end_date = 1909.1.1
}

alliance = {
	first = I27
	second = I26
	start_date = 1430.1.1
	end_date = 1909.1.1
}

alliance = {
	first = I27
	second = I28
	start_date = 1430.1.1
	end_date = 1909.1.1
}

alliance = {
	first = I27
	second = I29
	start_date = 1430.1.1
	end_date = 1909.1.1
}

alliance = {
	first = I27
	second = I30
	start_date = 1430.1.1
	end_date = 1909.1.1
}

alliance = {
	first = I27
	second = I33
	start_date = 1430.1.1
	end_date = 1909.1.1
}

alliance = {
	first = I28
	second = I27
	start_date = 1430.1.1
	end_date = 1909.1.1
}

alliance = {
	first = I28
	second = I26
	start_date = 1430.1.1
	end_date = 1909.1.1
}

alliance = {
	first = I28
	second = I29
	start_date = 1430.1.1
	end_date = 1909.1.1
}

alliance = {
	first = I28
	second = I30
	start_date = 1430.1.1
	end_date = 1909.1.1
}

alliance = {
	first = I28
	second = I33
	start_date = 1430.1.1
	end_date = 1909.1.1
}

alliance = {
	first = I29
	second = I27
	start_date = 1430.1.1
	end_date = 1909.1.1
}

alliance = {
	first = I29
	second = I28
	start_date = 1430.1.1
	end_date = 1909.1.1
}

alliance = {
	first = I29
	second = I26
	start_date = 1430.1.1
	end_date = 1909.1.1
}

alliance = {
	first = I29
	second = I30
	start_date = 1430.1.1
	end_date = 1909.1.1
}

alliance = {
	first = I29
	second = I33
	start_date = 1430.1.1
	end_date = 1909.1.1
}

alliance = {
	first = I30
	second = I27
	start_date = 1430.1.1
	end_date = 1909.1.1
}

alliance = {
	first = I30
	second = I28
	start_date = 1430.1.1
	end_date = 1909.1.1
}

alliance = {
	first = I30
	second = I29
	start_date = 1430.1.1
	end_date = 1909.1.1
}

alliance = {
	first = I30
	second = I26
	start_date = 1430.1.1
	end_date = 1909.1.1
}

alliance = {
	first = I30
	second = I33
	start_date = 1430.1.1
	end_date = 1909.1.1
}

alliance = {
	first = I33
	second = I27
	start_date = 1430.1.1
	end_date = 1909.1.1
}

alliance = {
	first = I33
	second = I28
	start_date = 1430.1.1
	end_date = 1909.1.1
}

alliance = {
	first = I33
	second = I29
	start_date = 1430.1.1
	end_date = 1909.1.1
}

alliance = {
	first = I33
	second = I30
	start_date = 1430.1.1
	end_date = 1909.1.1
}

alliance = {
	first = I33
	second = I26
	start_date = 1430.1.1
	end_date = 1909.1.1
}